%YAML 1.1
%TAG !u! tag:unity3d.com,2011:
--- !u!1001 &100100000
Prefab:
  m_ObjectHideFlags: 1
  serializedVersion: 2
  m_Modification:
    m_TransformParent: {fileID: 0}
    m_Modifications: []
    m_RemovedComponents: []
  m_ParentPrefab: {fileID: 0}
  m_RootGameObject: {fileID: 1468052487486552}
  m_IsPrefabParent: 1
--- !u!1 &1468052487486552
GameObject:
  m_ObjectHideFlags: 0
  m_PrefabParentObject: {fileID: 0}
  m_PrefabInternal: {fileID: 100100000}
  serializedVersion: 5
  m_Component:
  - component: {fileID: 4076823380085646}
  - component: {fileID: 220681928593397028}
  m_Layer: 0
  m_Name: LightProbes
  m_TagString: Untagged
  m_Icon: {fileID: 0}
  m_NavMeshLayer: 0
  m_StaticEditorFlags: 0
  m_IsActive: 1
--- !u!4 &4076823380085646
Transform:
  m_ObjectHideFlags: 1
  m_PrefabParentObject: {fileID: 0}
  m_PrefabInternal: {fileID: 100100000}
  m_GameObject: {fileID: 1468052487486552}
  m_LocalRotation: {x: 0, y: 0, z: 0, w: 1}
  m_LocalPosition: {x: 0, y: 0, z: 0}
  m_LocalScale: {x: 1, y: 1, z: 1}
  m_Children: []
  m_Father: {fileID: 0}
  m_RootOrder: 0
  m_LocalEulerAnglesHint: {x: 0, y: 0, z: 0}
--- !u!220 &220681928593397028
LightProbeGroup:
  m_ObjectHideFlags: 1
  m_PrefabParentObject: {fileID: 0}
  m_PrefabInternal: {fileID: 100100000}
  m_GameObject: {fileID: 1468052487486552}
  m_Enabled: 1
  m_SourcePositions:
  - {x: 7, y: 0.5, z: 0}
  - {x: 7, y: 0.5, z: -0.5}
  - {x: 0, y: 0.5, z: -0.5}
  - {x: 0, y: 0.5, z: 0}
  - {x: 0.5, y: 0.5, z: -0.5}
  - {x: 0.5, y: 0.5, z: 0}
  - {x: 1, y: 0.5, z: -0.5}
  - {x: 1, y: 0.5, z: 0}
  - {x: 1.5, y: 0.5, z: -0.5}
  - {x: 1.5, y: 0.5, z: 0}
  - {x: 2, y: 0.5, z: -0.5}
  - {x: 2, y: 0.5, z: 0}
  - {x: 2.5, y: 0.5, z: -0.5}
  - {x: 2.5, y: 0.5, z: 0}
  - {x: 3, y: 0.5, z: -0.5}
  - {x: 3, y: 0.5, z: 0}
  - {x: 3.5, y: 0.5, z: -0.5}
  - {x: 3.5, y: 0.5, z: 0}
  - {x: 4, y: 0.5, z: -0.5}
  - {x: 4, y: 0.5, z: 0}
  - {x: 4.5, y: 0.5, z: -0.5}
  - {x: 4.5, y: 0.5, z: 0}
  - {x: 5, y: 0.5, z: -0.5}
  - {x: 5, y: 0.5, z: 0}
  - {x: 5.5, y: 0.5, z: -0.5}
  - {x: 5.5, y: 0.5, z: 0}
  - {x: 6, y: 0.5, z: -0.5}
  - {x: 6, y: 0.5, z: 0}
  - {x: 6.5, y: 0.5, z: -0.5}
  - {x: 6.5, y: 0.5, z: 0}
  - {x: 7, y: 0.5, z: -1}
  - {x: 6.5, y: 0.5, z: -1}
  - {x: 6, y: 0.5, z: -1}
  - {x: 5.5, y: 0.5, z: -1}
  - {x: 5, y: 0.5, z: -1}
  - {x: 4.5, y: 0.5, z: -1}
  - {x: 4, y: 0.5, z: -1}
  - {x: 3.5, y: 0.5, z: -1}
  - {x: 3, y: 0.5, z: -1}
  - {x: 2.5, y: 0.5, z: -1}
  - {x: 2, y: 0.5, z: -1}
  - {x: 1.5, y: 0.5, z: -1}
  - {x: 1, y: 0.5, z: -1}
  - {x: 0.5, y: 0.5, z: -1}
  - {x: 0, y: 0.5, z: -1}
